%YAML 1.1
%TAG !u! tag:unity3d.com,2011:
--- !u!29 &1
OcclusionCullingSettings:
  m_ObjectHideFlags: 0
  serializedVersion: 2
  m_OcclusionBakeSettings:
    smallestOccluder: 5
    smallestHole: 0.25
    backfaceThreshold: 100
  m_SceneGUID: 00000000000000000000000000000000
  m_OcclusionCullingData: {fileID: 0}
--- !u!104 &2
RenderSettings:
  m_ObjectHideFlags: 0
  serializedVersion: 9
  m_Fog: 0
  m_FogColor: {r: 0.5, g: 0.5, b: 0.5, a: 1}
  m_FogMode: 3
  m_FogDensity: 0.01
  m_LinearFogStart: 0
  m_LinearFogEnd: 300
  m_AmbientSkyColor: {r: 0.212, g: 0.227, b: 0.259, a: 1}
  m_AmbientEquatorColor: {r: 0.114, g: 0.125, b: 0.133, a: 1}
  m_AmbientGroundColor: {r: 0.047, g: 0.043, b: 0.035, a: 1}
  m_AmbientIntensity: 1
  m_AmbientMode: 0
  m_SubtractiveShadowColor: {r: 0.42, g: 0.478, b: 0.627, a: 1}
  m_SkyboxMaterial: {fileID: 10304, guid: 0000000000000000f000000000000000, type: 0}
  m_HaloStrength: 0.5
  m_FlareStrength: 1
  m_FlareFadeSpeed: 3
  m_HaloTexture: {fileID: 0}
  m_SpotCookie: {fileID: 10001, guid: 0000000000000000e000000000000000, type: 0}
  m_DefaultReflectionMode: 0
  m_DefaultReflectionResolution: 128
  m_ReflectionBounces: 1
  m_ReflectionIntensity: 1
  m_CustomReflection: {fileID: 0}
  m_Sun: {fileID: 0}
  m_IndirectSpecularColor: {r: 0.44657874, g: 0.49641275, b: 0.5748172, a: 1}
  m_UseRadianceAmbientProbe: 0
--- !u!157 &3
LightmapSettings:
  m_ObjectHideFlags: 0
  serializedVersion: 12
  m_GIWorkflowMode: 1
  m_GISettings:
    serializedVersion: 2
    m_BounceScale: 1
    m_IndirectOutputScale: 1
    m_AlbedoBoost: 1
    m_EnvironmentLightingMode: 0
    m_EnableBakedLightmaps: 1
    m_EnableRealtimeLightmaps: 0
  m_LightmapEditorSettings:
    serializedVersion: 12
    m_Resolution: 2
    m_BakeResolution: 40
    m_AtlasSize: 1024
    m_AO: 0
    m_AOMaxDistance: 1
    m_CompAOExponent: 1
    m_CompAOExponentDirect: 0
    m_ExtractAmbientOcclusion: 0
    m_Padding: 2
    m_LightmapParameters: {fileID: 0}
    m_LightmapsBakeMode: 1
    m_TextureCompression: 1
    m_FinalGather: 0
    m_FinalGatherFiltering: 1
    m_FinalGatherRayCount: 256
    m_ReflectionCompression: 2
    m_MixedBakeMode: 2
    m_BakeBackend: 1
    m_PVRSampling: 1
    m_PVRDirectSampleCount: 32
    m_PVRSampleCount: 512
    m_PVRBounces: 2
    m_PVREnvironmentSampleCount: 256
    m_PVREnvironmentReferencePointCount: 2048
    m_PVRFilteringMode: 1
    m_PVRDenoiserTypeDirect: 1
    m_PVRDenoiserTypeIndirect: 1
    m_PVRDenoiserTypeAO: 1
    m_PVRFilterTypeDirect: 0
    m_PVRFilterTypeIndirect: 0
    m_PVRFilterTypeAO: 0
    m_PVREnvironmentMIS: 1
    m_PVRCulling: 1
    m_PVRFilteringGaussRadiusDirect: 1
    m_PVRFilteringGaussRadiusIndirect: 5
    m_PVRFilteringGaussRadiusAO: 2
    m_PVRFilteringAtrousPositionSigmaDirect: 0.5
    m_PVRFilteringAtrousPositionSigmaIndirect: 2
    m_PVRFilteringAtrousPositionSigmaAO: 1
    m_ExportTrainingData: 0
    m_TrainingDataDestination: TrainingData
    m_LightProbeSampleCountMultiplier: 4
  m_LightingDataAsset: {fileID: 0}
  m_LightingSettings: {fileID: 0}
--- !u!196 &4
NavMeshSettings:
  serializedVersion: 2
  m_ObjectHideFlags: 0
  m_BuildSettings:
    serializedVersion: 2
    agentTypeID: 0
    agentRadius: 0.5
    agentHeight: 2
    agentSlope: 45
    agentClimb: 0.4
    ledgeDropHeight: 0
    maxJumpAcrossDistance: 0
    minRegionArea: 2
    manualCellSize: 0
    cellSize: 0.16666667
    manualTileSize: 0
    tileSize: 256
    accuratePlacement: 0
    maxJobWorkers: 0
    preserveTilesOutsideBounds: 0
    debug:
      m_Flags: 0
  m_NavMeshData: {fileID: 0}
--- !u!1001 &49943599
PrefabInstance:
  m_ObjectHideFlags: 0
  serializedVersion: 2
  m_Modification:
    m_TransformParent: {fileID: 0}
    m_Modifications:
    - target: {fileID: 995795004225677673, guid: 8c15771dc1d04ff4cb05f42131badeaa, type: 3}
      propertyPath: m_Name
      value: Campfire
      objectReference: {fileID: 0}
    - target: {fileID: 995795004225677674, guid: 8c15771dc1d04ff4cb05f42131badeaa, type: 3}
      propertyPath: m_RootOrder
      value: 5
      objectReference: {fileID: 0}
    - target: {fileID: 995795004225677674, guid: 8c15771dc1d04ff4cb05f42131badeaa, type: 3}
      propertyPath: m_LocalPosition.x
      value: 0
      objectReference: {fileID: 0}
    - target: {fileID: 995795004225677674, guid: 8c15771dc1d04ff4cb05f42131badeaa, type: 3}
      propertyPath: m_LocalPosition.y
      value: 0
      objectReference: {fileID: 0}
    - target: {fileID: 995795004225677674, guid: 8c15771dc1d04ff4cb05f42131badeaa, type: 3}
      propertyPath: m_LocalPosition.z
      value: 0
      objectReference: {fileID: 0}
    - target: {fileID: 995795004225677674, guid: 8c15771dc1d04ff4cb05f42131badeaa, type: 3}
      propertyPath: m_LocalRotation.w
      value: 1
      objectReference: {fileID: 0}
    - target: {fileID: 995795004225677674, guid: 8c15771dc1d04ff4cb05f42131badeaa, type: 3}
      propertyPath: m_LocalRotation.x
      value: 0
      objectReference: {fileID: 0}
    - target: {fileID: 995795004225677674, guid: 8c15771dc1d04ff4cb05f42131badeaa, type: 3}
      propertyPath: m_LocalRotation.y
      value: 0
      objectReference: {fileID: 0}
    - target: {fileID: 995795004225677674, guid: 8c15771dc1d04ff4cb05f42131badeaa, type: 3}
      propertyPath: m_LocalRotation.z
      value: 0
      objectReference: {fileID: 0}
    - target: {fileID: 995795004225677674, guid: 8c15771dc1d04ff4cb05f42131badeaa, type: 3}
      propertyPath: m_LocalEulerAnglesHint.x
      value: 0
      objectReference: {fileID: 0}
    - target: {fileID: 995795004225677674, guid: 8c15771dc1d04ff4cb05f42131badeaa, type: 3}
      propertyPath: m_LocalEulerAnglesHint.y
      value: 0
      objectReference: {fileID: 0}
    - target: {fileID: 995795004225677674, guid: 8c15771dc1d04ff4cb05f42131badeaa, type: 3}
      propertyPath: m_LocalEulerAnglesHint.z
      value: 0
      objectReference: {fileID: 0}
    m_RemovedComponents: []
  m_SourcePrefab: {fileID: 100100000, guid: 8c15771dc1d04ff4cb05f42131badeaa, type: 3}
--- !u!1 &49943600 stripped
GameObject:
  m_CorrespondingSourceObject: {fileID: 995795004225677673, guid: 8c15771dc1d04ff4cb05f42131badeaa, type: 3}
  m_PrefabInstance: {fileID: 49943599}
  m_PrefabAsset: {fileID: 0}
--- !u!4 &49943601 stripped
Transform:
  m_CorrespondingSourceObject: {fileID: 995795004225677674, guid: 8c15771dc1d04ff4cb05f42131badeaa, type: 3}
  m_PrefabInstance: {fileID: 49943599}
  m_PrefabAsset: {fileID: 0}
--- !u!1001 &843375769
PrefabInstance:
  m_ObjectHideFlags: 0
  serializedVersion: 2
  m_Modification:
    m_TransformParent: {fileID: 49943601}
    m_Modifications:
    - target: {fileID: 7209133343362072132, guid: 9e45b7b1f53f49241bfbd66a67f34838, type: 3}
      propertyPath: m_RootOrder
      value: 29
      objectReference: {fileID: 0}
    - target: {fileID: 7209133343362072132, guid: 9e45b7b1f53f49241bfbd66a67f34838, type: 3}
      propertyPath: m_LocalPosition.x
      value: 0
      objectReference: {fileID: 0}
    - target: {fileID: 7209133343362072132, guid: 9e45b7b1f53f49241bfbd66a67f34838, type: 3}
      propertyPath: m_LocalPosition.y
      value: 0.5
      objectReference: {fileID: 0}
    - target: {fileID: 7209133343362072132, guid: 9e45b7b1f53f49241bfbd66a67f34838, type: 3}
      propertyPath: m_LocalPosition.z
      value: 0
      objectReference: {fileID: 0}
    - target: {fileID: 7209133343362072132, guid: 9e45b7b1f53f49241bfbd66a67f34838, type: 3}
      propertyPath: m_LocalRotation.w
      value: 0.7071068
      objectReference: {fileID: 0}
    - target: {fileID: 7209133343362072132, guid: 9e45b7b1f53f49241bfbd66a67f34838, type: 3}
      propertyPath: m_LocalRotation.x
      value: -0.7071068
      objectReference: {fileID: 0}
    - target: {fileID: 7209133343362072132, guid: 9e45b7b1f53f49241bfbd66a67f34838, type: 3}
      propertyPath: m_LocalRotation.y
      value: 0
      objectReference: {fileID: 0}
    - target: {fileID: 7209133343362072132, guid: 9e45b7b1f53f49241bfbd66a67f34838, type: 3}
      propertyPath: m_LocalRotation.z
      value: 0
      objectReference: {fileID: 0}
    - target: {fileID: 7209133343362072132, guid: 9e45b7b1f53f49241bfbd66a67f34838, type: 3}
      propertyPath: m_LocalEulerAnglesHint.x
      value: -90
      objectReference: {fileID: 0}
    - target: {fileID: 7209133343362072132, guid: 9e45b7b1f53f49241bfbd66a67f34838, type: 3}
      propertyPath: m_LocalEulerAnglesHint.y
      value: 0
      objectReference: {fileID: 0}
    - target: {fileID: 7209133343362072132, guid: 9e45b7b1f53f49241bfbd66a67f34838, type: 3}
      propertyPath: m_LocalEulerAnglesHint.z
      value: 0
      objectReference: {fileID: 0}
    - target: {fileID: 7209133343362072135, guid: 9e45b7b1f53f49241bfbd66a67f34838, type: 3}
      propertyPath: m_Name
      value: 'Fire '
      objectReference: {fileID: 0}
    m_RemovedComponents: []
  m_SourcePrefab: {fileID: 100100000, guid: 9e45b7b1f53f49241bfbd66a67f34838, type: 3}
--- !u!1 &1239256980
GameObject:
  m_ObjectHideFlags: 0
  m_CorrespondingSourceObject: {fileID: 0}
  m_PrefabInstance: {fileID: 0}
  m_PrefabAsset: {fileID: 0}
  serializedVersion: 6
  m_Component:
  - component: {fileID: 1239256982}
  - component: {fileID: 1239256981}
  m_Layer: 0
  m_Name: Directional Light
  m_TagString: Untagged
  m_Icon: {fileID: 0}
  m_NavMeshLayer: 0
  m_StaticEditorFlags: 0
  m_IsActive: 1
--- !u!108 &1239256981
Light:
  m_ObjectHideFlags: 0
  m_CorrespondingSourceObject: {fileID: 0}
  m_PrefabInstance: {fileID: 0}
  m_PrefabAsset: {fileID: 0}
  m_GameObject: {fileID: 1239256980}
  m_Enabled: 1
  serializedVersion: 10
  m_Type: 1
  m_Shape: 0
  m_Color: {r: 1, g: 0.95686275, b: 0.8392157, a: 1}
  m_Intensity: 1
  m_Range: 10
  m_SpotAngle: 30
  m_InnerSpotAngle: 21.80208
  m_CookieSize: 10
  m_Shadows:
    m_Type: 2
    m_Resolution: -1
    m_CustomResolution: -1
    m_Strength: 1
    m_Bias: 0.05
    m_NormalBias: 0.4
    m_NearPlane: 0.2
    m_CullingMatrixOverride:
      e00: 1
      e01: 0
      e02: 0
      e03: 0
      e10: 0
      e11: 1
      e12: 0
      e13: 0
      e20: 0
      e21: 0
      e22: 1
      e23: 0
      e30: 0
      e31: 0
      e32: 0
      e33: 1
    m_UseCullingMatrixOverride: 0
  m_Cookie: {fileID: 0}
  m_DrawHalo: 0
  m_Flare: {fileID: 0}
  m_RenderMode: 0
  m_CullingMask:
    serializedVersion: 2
    m_Bits: 4294967295
  m_RenderingLayerMask: 1
  m_Lightmapping: 4
  m_LightShadowCasterMode: 0
  m_AreaSize: {x: 1, y: 1}
  m_BounceIntensity: 1
  m_ColorTemperature: 6570
  m_UseColorTemperature: 0
  m_BoundingSphereOverride: {x: 0, y: 0, z: 0, w: 0}
  m_UseBoundingSphereOverride: 0
  m_UseViewFrustumForShadowCasterCull: 1
  m_ShadowRadius: 0
  m_ShadowAngle: 0
--- !u!4 &1239256982
Transform:
  m_ObjectHideFlags: 0
  m_CorrespondingSourceObject: {fileID: 0}
  m_PrefabInstance: {fileID: 0}
  m_PrefabAsset: {fileID: 0}
  m_GameObject: {fileID: 1239256980}
  m_LocalRotation: {x: 0.40821788, y: -0.23456968, z: 0.10938163, w: 0.8754261}
  m_LocalPosition: {x: 0, y: 3, z: 0}
  m_LocalScale: {x: 1, y: 1, z: 1}
  m_ConstrainProportionsScale: 0
  m_Children: []
  m_Father: {fileID: 0}
  m_RootOrder: 0
  m_LocalEulerAnglesHint: {x: 50, y: -30, z: 0}
--- !u!1 &1275749652
GameObject:
  m_ObjectHideFlags: 0
  m_CorrespondingSourceObject: {fileID: 0}
  m_PrefabInstance: {fileID: 0}
  m_PrefabAsset: {fileID: 0}
  serializedVersion: 6
  m_Component:
  - component: {fileID: 1275749657}
  - component: {fileID: 1275749662}
  - component: {fileID: 1275749661}
  - component: {fileID: 1275749660}
  - component: {fileID: 1275749658}
  - component: {fileID: 1275749663}
  m_Layer: 0
  m_Name: Levelgen
  m_TagString: Untagged
  m_Icon: {fileID: 0}
  m_NavMeshLayer: 0
  m_StaticEditorFlags: 0
  m_IsActive: 1
--- !u!4 &1275749657
Transform:
  m_ObjectHideFlags: 0
  m_CorrespondingSourceObject: {fileID: 0}
  m_PrefabInstance: {fileID: 0}
  m_PrefabAsset: {fileID: 0}
  m_GameObject: {fileID: 1275749652}
  m_LocalRotation: {x: 0, y: 0, z: 0, w: 1}
  m_LocalPosition: {x: 0, y: 0, z: 0}
  m_LocalScale: {x: 1, y: 1, z: 1}
  m_ConstrainProportionsScale: 0
  m_Children: []
  m_Father: {fileID: 0}
  m_RootOrder: 1
  m_LocalEulerAnglesHint: {x: 0, y: 0, z: 0}
--- !u!114 &1275749658
MonoBehaviour:
  m_ObjectHideFlags: 0
  m_CorrespondingSourceObject: {fileID: 0}
  m_PrefabInstance: {fileID: 0}
  m_PrefabAsset: {fileID: 0}
  m_GameObject: {fileID: 1275749652}
  m_Enabled: 1
  m_EditorHideFlags: 0
  m_Script: {fileID: 11500000, guid: 24a8affa41d7ede4582937cf1e1503b6, type: 3}
  m_Name: 
  m_EditorClassIdentifier: 
  isActive: 0
  player: {fileID: 1568618050}
  renderDistance: 100
--- !u!114 &1275749660
MonoBehaviour:
  m_ObjectHideFlags: 0
  m_CorrespondingSourceObject: {fileID: 0}
  m_PrefabInstance: {fileID: 0}
  m_PrefabAsset: {fileID: 0}
  m_GameObject: {fileID: 1275749652}
  m_Enabled: 1
  m_EditorHideFlags: 0
  m_Script: {fileID: 11500000, guid: ec879937052b742459baa30d60072d90, type: 3}
  m_Name: 
  m_EditorClassIdentifier: 
  isDebug: 0
  landmarkPrefab: {fileID: 4115353048631394595, guid: 0130fbcabbd953945917a067b5f5b7c7, type: 3}
  sceneObjectPrefabs:
  - {fileID: 2330425910216138425, guid: 8f63fa925126a5449b86c74b2ff7a316, type: 3}
  sceneObjectsPerTile: 0
  tileManager: {fileID: 1275749663}
  tilePrefab: {fileID: 2267340643528347031, guid: d3cc35faba5fa7c4788a90282dd7ad5b, type: 3}
  visibilityController: {fileID: 1275749658}
  worldParent: {fileID: 1377112556}
--- !u!114 &1275749661
MonoBehaviour:
  m_ObjectHideFlags: 0
  m_CorrespondingSourceObject: {fileID: 0}
  m_PrefabInstance: {fileID: 0}
  m_PrefabAsset: {fileID: 0}
  m_GameObject: {fileID: 1275749652}
  m_Enabled: 1
  m_EditorHideFlags: 0
  m_Script: {fileID: 11500000, guid: 0161e4ddf9a13c94fa638890ca942836, type: 3}
  m_Name: 
  m_EditorClassIdentifier: 
  goalMarker: {fileID: 49943600}
  objectSpawner: {fileID: 1275749660}
--- !u!114 &1275749662
MonoBehaviour:
  m_ObjectHideFlags: 0
  m_CorrespondingSourceObject: {fileID: 0}
  m_PrefabInstance: {fileID: 0}
  m_PrefabAsset: {fileID: 0}
  m_GameObject: {fileID: 1275749652}
  m_Enabled: 1
  m_EditorHideFlags: 0
  m_Script: {fileID: 11500000, guid: adc853519ef8cf94d871661a7cc2ca03, type: 3}
  m_Name: 
  m_EditorClassIdentifier: 
  distanceBasedTileManager: {fileID: 1275749663}
  floorAreaRadius: 50
  goalPosition: {x: 0, y: 0, z: 0}
  homingStartPosition: {x: 0, y: 0, z: 25}
  landmarkPositions:
  - {x: 0, y: 0, z: 10}
  - {x: 10, y: 0, z: 20}
  playerObject: {fileID: 1568618050}
  resetIntervalInSeconds: 4
  sceneObjectDensity: 0.1
  sceneSetup: {fileID: 1275749661}
  simulateNewTrial: 1
  updateTiles: 1
  waypointPositions: []
--- !u!114 &1275749663
MonoBehaviour:
  m_ObjectHideFlags: 0
  m_CorrespondingSourceObject: {fileID: 0}
  m_PrefabInstance: {fileID: 0}
  m_PrefabAsset: {fileID: 0}
  m_GameObject: {fileID: 1275749652}
  m_Enabled: 1
  m_EditorHideFlags: 0
  m_Script: {fileID: 11500000, guid: a07349cd89ff7f442abb7621c9887c5b, type: 3}
  m_Name: 
  m_EditorClassIdentifier: 
  objectSpawner: {fileID: 1275749660}
  tileUpdatesPerSecond: 0.5
  visibilityController: {fileID: 1275749658}
--- !u!1 &1377112556
GameObject:
  m_ObjectHideFlags: 0
  m_CorrespondingSourceObject: {fileID: 0}
  m_PrefabInstance: {fileID: 0}
  m_PrefabAsset: {fileID: 0}
  serializedVersion: 6
  m_Component:
  - component: {fileID: 1377112557}
  m_Layer: 0
  m_Name: World
  m_TagString: Untagged
  m_Icon: {fileID: 0}
  m_NavMeshLayer: 0
  m_StaticEditorFlags: 0
  m_IsActive: 1
--- !u!4 &1377112557
Transform:
  m_ObjectHideFlags: 0
  m_CorrespondingSourceObject: {fileID: 0}
  m_PrefabInstance: {fileID: 0}
  m_PrefabAsset: {fileID: 0}
  m_GameObject: {fileID: 1377112556}
  m_LocalRotation: {x: 0, y: 0, z: 0, w: 1}
  m_LocalPosition: {x: 0, y: 0, z: 0}
  m_LocalScale: {x: 1, y: 1, z: 1}
  m_ConstrainProportionsScale: 0
  m_Children: []
  m_Father: {fileID: 0}
  m_RootOrder: 4
  m_LocalEulerAnglesHint: {x: 0, y: 0, z: 0}
--- !u!1001 &1426636111
PrefabInstance:
  m_ObjectHideFlags: 0
  serializedVersion: 2
  m_Modification:
    m_TransformParent: {fileID: 0}
    m_Modifications:
    - target: {fileID: 8184004520251328769, guid: 59aa368ac094fd94aa6ae48ce3f53138, type: 3}
      propertyPath: m_Name
      value: VNT_Logging
      objectReference: {fileID: 0}
    - target: {fileID: 8184004520251328774, guid: 59aa368ac094fd94aa6ae48ce3f53138, type: 3}
      propertyPath: m_RootOrder
      value: 2
      objectReference: {fileID: 0}
    - target: {fileID: 8184004520251328774, guid: 59aa368ac094fd94aa6ae48ce3f53138, type: 3}
      propertyPath: m_LocalPosition.x
      value: 0
      objectReference: {fileID: 0}
    - target: {fileID: 8184004520251328774, guid: 59aa368ac094fd94aa6ae48ce3f53138, type: 3}
      propertyPath: m_LocalPosition.y
      value: 0
      objectReference: {fileID: 0}
    - target: {fileID: 8184004520251328774, guid: 59aa368ac094fd94aa6ae48ce3f53138, type: 3}
      propertyPath: m_LocalPosition.z
      value: 0
      objectReference: {fileID: 0}
    - target: {fileID: 8184004520251328774, guid: 59aa368ac094fd94aa6ae48ce3f53138, type: 3}
      propertyPath: m_LocalRotation.w
      value: 1
      objectReference: {fileID: 0}
    - target: {fileID: 8184004520251328774, guid: 59aa368ac094fd94aa6ae48ce3f53138, type: 3}
      propertyPath: m_LocalRotation.x
      value: 0
      objectReference: {fileID: 0}
    - target: {fileID: 8184004520251328774, guid: 59aa368ac094fd94aa6ae48ce3f53138, type: 3}
      propertyPath: m_LocalRotation.y
      value: 0
      objectReference: {fileID: 0}
    - target: {fileID: 8184004520251328774, guid: 59aa368ac094fd94aa6ae48ce3f53138, type: 3}
      propertyPath: m_LocalRotation.z
      value: 0
      objectReference: {fileID: 0}
    - target: {fileID: 8184004520251328774, guid: 59aa368ac094fd94aa6ae48ce3f53138, type: 3}
      propertyPath: m_LocalEulerAnglesHint.x
      value: 0
      objectReference: {fileID: 0}
    - target: {fileID: 8184004520251328774, guid: 59aa368ac094fd94aa6ae48ce3f53138, type: 3}
      propertyPath: m_LocalEulerAnglesHint.y
      value: 0
      objectReference: {fileID: 0}
    - target: {fileID: 8184004520251328774, guid: 59aa368ac094fd94aa6ae48ce3f53138, type: 3}
      propertyPath: m_LocalEulerAnglesHint.z
      value: 0
      objectReference: {fileID: 0}
    m_RemovedComponents: []
  m_SourcePrefab: {fileID: 100100000, guid: 59aa368ac094fd94aa6ae48ce3f53138, type: 3}
--- !u!1001 &1568618049
PrefabInstance:
  m_ObjectHideFlags: 0
  serializedVersion: 2
  m_Modification:
    m_TransformParent: {fileID: 0}
    m_Modifications:
    - target: {fileID: 417490020107877270, guid: 01b0ac4fdef24e94eb13f4a3c8d2be10, type: 3}
      propertyPath: m_Name
      value: Player
      objectReference: {fileID: 0}
    - target: {fileID: 417490020107877274, guid: 01b0ac4fdef24e94eb13f4a3c8d2be10, type: 3}
      propertyPath: m_RootOrder
      value: 3
      objectReference: {fileID: 0}
    - target: {fileID: 417490020107877274, guid: 01b0ac4fdef24e94eb13f4a3c8d2be10, type: 3}
      propertyPath: m_LocalPosition.x
      value: 68.2
      objectReference: {fileID: 0}
    - target: {fileID: 417490020107877274, guid: 01b0ac4fdef24e94eb13f4a3c8d2be10, type: 3}
      propertyPath: m_LocalPosition.y
      value: 1
      objectReference: {fileID: 0}
    - target: {fileID: 417490020107877274, guid: 01b0ac4fdef24e94eb13f4a3c8d2be10, type: 3}
      propertyPath: m_LocalPosition.z
      value: 28
      objectReference: {fileID: 0}
    - target: {fileID: 417490020107877274, guid: 01b0ac4fdef24e94eb13f4a3c8d2be10, type: 3}
      propertyPath: m_LocalRotation.w
      value: 0.9099612
      objectReference: {fileID: 0}
    - target: {fileID: 417490020107877274, guid: 01b0ac4fdef24e94eb13f4a3c8d2be10, type: 3}
      propertyPath: m_LocalRotation.x
      value: 0
      objectReference: {fileID: 0}
    - target: {fileID: 417490020107877274, guid: 01b0ac4fdef24e94eb13f4a3c8d2be10, type: 3}
      propertyPath: m_LocalRotation.y
      value: -0.41469333
      objectReference: {fileID: 0}
    - target: {fileID: 417490020107877274, guid: 01b0ac4fdef24e94eb13f4a3c8d2be10, type: 3}
      propertyPath: m_LocalRotation.z
      value: 0
      objectReference: {fileID: 0}
    - target: {fileID: 417490020107877274, guid: 01b0ac4fdef24e94eb13f4a3c8d2be10, type: 3}
      propertyPath: m_LocalEulerAnglesHint.x
      value: 0
      objectReference: {fileID: 0}
    - target: {fileID: 417490020107877274, guid: 01b0ac4fdef24e94eb13f4a3c8d2be10, type: 3}
      propertyPath: m_LocalEulerAnglesHint.y
      value: -49
      objectReference: {fileID: 0}
    - target: {fileID: 417490020107877274, guid: 01b0ac4fdef24e94eb13f4a3c8d2be10, type: 3}
      propertyPath: m_LocalEulerAnglesHint.z
      value: 0
      objectReference: {fileID: 0}
    - target: {fileID: 6756709794236947116, guid: 01b0ac4fdef24e94eb13f4a3c8d2be10, type: 3}
      propertyPath: MaxAngularVelocity
      value: 60
      objectReference: {fileID: 0}
    - target: {fileID: 6756709794236947116, guid: 01b0ac4fdef24e94eb13f4a3c8d2be10, type: 3}
      propertyPath: MaxForwardVelocity
      value: 3
      objectReference: {fileID: 0}
    m_RemovedComponents: []
  m_SourcePrefab: {fileID: 100100000, guid: 01b0ac4fdef24e94eb13f4a3c8d2be10, type: 3}
--- !u!1 &1568618050 stripped
GameObject:
  m_CorrespondingSourceObject: {fileID: 417490020107877270, guid: 01b0ac4fdef24e94eb13f4a3c8d2be10, type: 3}
  m_PrefabInstance: {fileID: 1568618049}
  m_PrefabAsset: {fileID: 0}
--- !u!1001 &2004112844
PrefabInstance:
  m_ObjectHideFlags: 0
  serializedVersion: 2
  m_Modification:
    m_TransformParent: {fileID: 49943601}
    m_Modifications:
    - target: {fileID: 4446060028054712598, guid: a98d2a09f0071c44da1db0994fda6935, type: 3}
      propertyPath: m_RootOrder
      value: 28
      objectReference: {fileID: 0}
    - target: {fileID: 4446060028054712598, guid: a98d2a09f0071c44da1db0994fda6935, type: 3}
      propertyPath: m_LocalPosition.x
      value: 0
      objectReference: {fileID: 0}
    - target: {fileID: 4446060028054712598, guid: a98d2a09f0071c44da1db0994fda6935, type: 3}
      propertyPath: m_LocalPosition.y
      value: 0.5
      objectReference: {fileID: 0}
    - target: {fileID: 4446060028054712598, guid: a98d2a09f0071c44da1db0994fda6935, type: 3}
      propertyPath: m_LocalPosition.z
      value: 0
      objectReference: {fileID: 0}
    - target: {fileID: 4446060028054712598, guid: a98d2a09f0071c44da1db0994fda6935, type: 3}
      propertyPath: m_LocalRotation.w
      value: 0.7071068
      objectReference: {fileID: 0}
    - target: {fileID: 4446060028054712598, guid: a98d2a09f0071c44da1db0994fda6935, type: 3}
      propertyPath: m_LocalRotation.x
      value: -0.7071068
      objectReference: {fileID: 0}
    - target: {fileID: 4446060028054712598, guid: a98d2a09f0071c44da1db0994fda6935, type: 3}
      propertyPath: m_LocalRotation.y
      value: 0
      objectReference: {fileID: 0}
    - target: {fileID: 4446060028054712598, guid: a98d2a09f0071c44da1db0994fda6935, type: 3}
      propertyPath: m_LocalRotation.z
      value: 0
      objectReference: {fileID: 0}
    - target: {fileID: 4446060028054712598, guid: a98d2a09f0071c44da1db0994fda6935, type: 3}
      propertyPath: m_LocalEulerAnglesHint.x
      value: -90
      objectReference: {fileID: 0}
    - target: {fileID: 4446060028054712598, guid: a98d2a09f0071c44da1db0994fda6935, type: 3}
      propertyPath: m_LocalEulerAnglesHint.y
      value: 0
      objectReference: {fileID: 0}
    - target: {fileID: 4446060028054712598, guid: a98d2a09f0071c44da1db0994fda6935, type: 3}
      propertyPath: m_LocalEulerAnglesHint.z
      value: 0
      objectReference: {fileID: 0}
    - target: {fileID: 4446060028054712603, guid: a98d2a09f0071c44da1db0994fda6935, type: 3}
      propertyPath: m_Name
      value: Sparks
      objectReference: {fileID: 0}
    m_RemovedComponents: []
  m_SourcePrefab: {fileID: 100100000, guid: a98d2a09f0071c44da1db0994fda6935, type: 3}
