%YAML 1.1
%TAG !u! tag:unity3d.com,2011:
--- !u!29 &1
OcclusionCullingSettings:
  m_ObjectHideFlags: 0
  serializedVersion: 2
  m_OcclusionBakeSettings:
    smallestOccluder: 5
    smallestHole: 0.25
    backfaceThreshold: 100
  m_SceneGUID: 00000000000000000000000000000000
  m_OcclusionCullingData: {fileID: 0}
--- !u!104 &2
RenderSettings:
  m_ObjectHideFlags: 0
  serializedVersion: 9
  m_Fog: 0
  m_FogColor: {r: 0.5, g: 0.5, b: 0.5, a: 1}
  m_FogMode: 3
  m_FogDensity: 0.01
  m_LinearFogStart: 0
  m_LinearFogEnd: 300
  m_AmbientSkyColor: {r: 0.212, g: 0.227, b: 0.259, a: 1}
  m_AmbientEquatorColor: {r: 0.114, g: 0.125, b: 0.133, a: 1}
  m_AmbientGroundColor: {r: 0.047, g: 0.043, b: 0.035, a: 1}
  m_AmbientIntensity: 1
  m_AmbientMode: 0
  m_SubtractiveShadowColor: {r: 0.42, g: 0.478, b: 0.627, a: 1}
  m_SkyboxMaterial: {fileID: 10304, guid: 0000000000000000f000000000000000, type: 0}
  m_HaloStrength: 0.5
  m_FlareStrength: 1
  m_FlareFadeSpeed: 3
  m_HaloTexture: {fileID: 0}
  m_SpotCookie: {fileID: 10001, guid: 0000000000000000e000000000000000, type: 0}
  m_DefaultReflectionMode: 0
  m_DefaultReflectionResolution: 128
  m_ReflectionBounces: 1
  m_ReflectionIntensity: 1
  m_CustomReflection: {fileID: 0}
  m_Sun: {fileID: 0}
  m_IndirectSpecularColor: {r: 0.44657874, g: 0.49641258, b: 0.5748172, a: 1}
  m_UseRadianceAmbientProbe: 0
--- !u!157 &3
LightmapSettings:
  m_ObjectHideFlags: 0
  serializedVersion: 12
  m_GIWorkflowMode: 1
  m_GISettings:
    serializedVersion: 2
    m_BounceScale: 1
    m_IndirectOutputScale: 1
    m_AlbedoBoost: 1
    m_EnvironmentLightingMode: 0
    m_EnableBakedLightmaps: 1
    m_EnableRealtimeLightmaps: 0
  m_LightmapEditorSettings:
    serializedVersion: 12
    m_Resolution: 2
    m_BakeResolution: 40
    m_AtlasSize: 1024
    m_AO: 0
    m_AOMaxDistance: 1
    m_CompAOExponent: 1
    m_CompAOExponentDirect: 0
    m_ExtractAmbientOcclusion: 0
    m_Padding: 2
    m_LightmapParameters: {fileID: 0}
    m_LightmapsBakeMode: 1
    m_TextureCompression: 1
    m_FinalGather: 0
    m_FinalGatherFiltering: 1
    m_FinalGatherRayCount: 256
    m_ReflectionCompression: 2
    m_MixedBakeMode: 2
    m_BakeBackend: 1
    m_PVRSampling: 1
    m_PVRDirectSampleCount: 32
    m_PVRSampleCount: 512
    m_PVRBounces: 2
    m_PVREnvironmentSampleCount: 256
    m_PVREnvironmentReferencePointCount: 2048
    m_PVRFilteringMode: 1
    m_PVRDenoiserTypeDirect: 1
    m_PVRDenoiserTypeIndirect: 1
    m_PVRDenoiserTypeAO: 1
    m_PVRFilterTypeDirect: 0
    m_PVRFilterTypeIndirect: 0
    m_PVRFilterTypeAO: 0
    m_PVREnvironmentMIS: 1
    m_PVRCulling: 1
    m_PVRFilteringGaussRadiusDirect: 1
    m_PVRFilteringGaussRadiusIndirect: 5
    m_PVRFilteringGaussRadiusAO: 2
    m_PVRFilteringAtrousPositionSigmaDirect: 0.5
    m_PVRFilteringAtrousPositionSigmaIndirect: 2
    m_PVRFilteringAtrousPositionSigmaAO: 1
    m_ExportTrainingData: 0
    m_TrainingDataDestination: TrainingData
    m_LightProbeSampleCountMultiplier: 4
  m_LightingDataAsset: {fileID: 0}
  m_LightingSettings: {fileID: 0}
--- !u!196 &4
NavMeshSettings:
  serializedVersion: 2
  m_ObjectHideFlags: 0
  m_BuildSettings:
    serializedVersion: 2
    agentTypeID: 0
    agentRadius: 0.5
    agentHeight: 2
    agentSlope: 45
    agentClimb: 0.4
    ledgeDropHeight: 0
    maxJumpAcrossDistance: 0
    minRegionArea: 2
    manualCellSize: 0
    cellSize: 0.16666667
    manualTileSize: 0
    tileSize: 256
    accuratePlacement: 0
    maxJobWorkers: 0
    preserveTilesOutsideBounds: 0
    debug:
      m_Flags: 0
  m_NavMeshData: {fileID: 0}
--- !u!1001 &178530901
PrefabInstance:
  m_ObjectHideFlags: 0
  serializedVersion: 2
  m_Modification:
    m_TransformParent: {fileID: 0}
    m_Modifications:
    - target: {fileID: 349263448684344842, guid: 0130fbcabbd953945917a067b5f5b7c7, type: 3}
      propertyPath: m_RootOrder
      value: 8
      objectReference: {fileID: 0}
    - target: {fileID: 349263448684344842, guid: 0130fbcabbd953945917a067b5f5b7c7, type: 3}
      propertyPath: m_LocalPosition.x
      value: 0
      objectReference: {fileID: 0}
    - target: {fileID: 349263448684344842, guid: 0130fbcabbd953945917a067b5f5b7c7, type: 3}
      propertyPath: m_LocalPosition.y
      value: 0
      objectReference: {fileID: 0}
    - target: {fileID: 349263448684344842, guid: 0130fbcabbd953945917a067b5f5b7c7, type: 3}
      propertyPath: m_LocalPosition.z
      value: 0
      objectReference: {fileID: 0}
    - target: {fileID: 349263448684344842, guid: 0130fbcabbd953945917a067b5f5b7c7, type: 3}
      propertyPath: m_LocalRotation.w
      value: 1
      objectReference: {fileID: 0}
    - target: {fileID: 349263448684344842, guid: 0130fbcabbd953945917a067b5f5b7c7, type: 3}
      propertyPath: m_LocalRotation.x
      value: 0
      objectReference: {fileID: 0}
    - target: {fileID: 349263448684344842, guid: 0130fbcabbd953945917a067b5f5b7c7, type: 3}
      propertyPath: m_LocalRotation.y
      value: 0
      objectReference: {fileID: 0}
    - target: {fileID: 349263448684344842, guid: 0130fbcabbd953945917a067b5f5b7c7, type: 3}
      propertyPath: m_LocalRotation.z
      value: 0
      objectReference: {fileID: 0}
    - target: {fileID: 349263448684344842, guid: 0130fbcabbd953945917a067b5f5b7c7, type: 3}
      propertyPath: m_LocalEulerAnglesHint.x
      value: 0
      objectReference: {fileID: 0}
    - target: {fileID: 349263448684344842, guid: 0130fbcabbd953945917a067b5f5b7c7, type: 3}
      propertyPath: m_LocalEulerAnglesHint.y
      value: 0
      objectReference: {fileID: 0}
    - target: {fileID: 349263448684344842, guid: 0130fbcabbd953945917a067b5f5b7c7, type: 3}
      propertyPath: m_LocalEulerAnglesHint.z
      value: 0
      objectReference: {fileID: 0}
    - target: {fileID: 4115353048631394595, guid: 0130fbcabbd953945917a067b5f5b7c7, type: 3}
      propertyPath: m_Name
      value: Tree
      objectReference: {fileID: 0}
    m_RemovedComponents: []
  m_SourcePrefab: {fileID: 100100000, guid: 0130fbcabbd953945917a067b5f5b7c7, type: 3}
--- !u!1 &236974303
GameObject:
  m_ObjectHideFlags: 0
  m_CorrespondingSourceObject: {fileID: 0}
  m_PrefabInstance: {fileID: 0}
  m_PrefabAsset: {fileID: 0}
  serializedVersion: 6
  m_Component:
  - component: {fileID: 236974305}
  - component: {fileID: 236974304}
  m_Layer: 0
  m_Name: Directional Light
  m_TagString: Untagged
  m_Icon: {fileID: 0}
  m_NavMeshLayer: 0
  m_StaticEditorFlags: 0
  m_IsActive: 1
--- !u!108 &236974304
Light:
  m_ObjectHideFlags: 0
  m_CorrespondingSourceObject: {fileID: 0}
  m_PrefabInstance: {fileID: 0}
  m_PrefabAsset: {fileID: 0}
  m_GameObject: {fileID: 236974303}
  m_Enabled: 1
  serializedVersion: 10
  m_Type: 1
  m_Shape: 0
  m_Color: {r: 1, g: 0.95686275, b: 0.8392157, a: 1}
  m_Intensity: 1
  m_Range: 10
  m_SpotAngle: 30
  m_InnerSpotAngle: 21.80208
  m_CookieSize: 10
  m_Shadows:
    m_Type: 2
    m_Resolution: -1
    m_CustomResolution: -1
    m_Strength: 1
    m_Bias: 0.05
    m_NormalBias: 0.4
    m_NearPlane: 0.2
    m_CullingMatrixOverride:
      e00: 1
      e01: 0
      e02: 0
      e03: 0
      e10: 0
      e11: 1
      e12: 0
      e13: 0
      e20: 0
      e21: 0
      e22: 1
      e23: 0
      e30: 0
      e31: 0
      e32: 0
      e33: 1
    m_UseCullingMatrixOverride: 0
  m_Cookie: {fileID: 0}
  m_DrawHalo: 0
  m_Flare: {fileID: 0}
  m_RenderMode: 0
  m_CullingMask:
    serializedVersion: 2
    m_Bits: 4294967295
  m_RenderingLayerMask: 1
  m_Lightmapping: 4
  m_LightShadowCasterMode: 0
  m_AreaSize: {x: 1, y: 1}
  m_BounceIntensity: 1
  m_ColorTemperature: 6570
  m_UseColorTemperature: 0
  m_BoundingSphereOverride: {x: 0, y: 0, z: 0, w: 0}
  m_UseBoundingSphereOverride: 0
  m_UseViewFrustumForShadowCasterCull: 1
  m_ShadowRadius: 0
  m_ShadowAngle: 0
--- !u!4 &236974305
Transform:
  m_ObjectHideFlags: 0
  m_CorrespondingSourceObject: {fileID: 0}
  m_PrefabInstance: {fileID: 0}
  m_PrefabAsset: {fileID: 0}
  m_GameObject: {fileID: 236974303}
  m_LocalRotation: {x: 0.40821788, y: -0.23456968, z: 0.10938163, w: 0.8754261}
  m_LocalPosition: {x: 0, y: 4.751, z: 0}
  m_LocalScale: {x: 1, y: 1, z: 1}
  m_Children: []
  m_Father: {fileID: 0}
  m_RootOrder: 0
  m_LocalEulerAnglesHint: {x: 50, y: -30, z: 0}
--- !u!1001 &264849507
PrefabInstance:
  m_ObjectHideFlags: 0
  serializedVersion: 2
  m_Modification:
    m_TransformParent: {fileID: 0}
    m_Modifications:
    - target: {fileID: 1853801124043520886, guid: 8f63fa925126a5449b86c74b2ff7a316, type: 3}
      propertyPath: m_RootOrder
      value: 5
      objectReference: {fileID: 0}
    - target: {fileID: 1853801124043520886, guid: 8f63fa925126a5449b86c74b2ff7a316, type: 3}
      propertyPath: m_LocalPosition.x
      value: 1.42
      objectReference: {fileID: 0}
    - target: {fileID: 1853801124043520886, guid: 8f63fa925126a5449b86c74b2ff7a316, type: 3}
      propertyPath: m_LocalPosition.y
      value: 0
      objectReference: {fileID: 0}
    - target: {fileID: 1853801124043520886, guid: 8f63fa925126a5449b86c74b2ff7a316, type: 3}
      propertyPath: m_LocalPosition.z
      value: -1.2
      objectReference: {fileID: 0}
    - target: {fileID: 1853801124043520886, guid: 8f63fa925126a5449b86c74b2ff7a316, type: 3}
      propertyPath: m_LocalRotation.w
      value: 0.7071068
      objectReference: {fileID: 0}
    - target: {fileID: 1853801124043520886, guid: 8f63fa925126a5449b86c74b2ff7a316, type: 3}
      propertyPath: m_LocalRotation.x
      value: 0
      objectReference: {fileID: 0}
    - target: {fileID: 1853801124043520886, guid: 8f63fa925126a5449b86c74b2ff7a316, type: 3}
      propertyPath: m_LocalRotation.y
      value: 0.7071068
      objectReference: {fileID: 0}
    - target: {fileID: 1853801124043520886, guid: 8f63fa925126a5449b86c74b2ff7a316, type: 3}
      propertyPath: m_LocalRotation.z
      value: 0
      objectReference: {fileID: 0}
    - target: {fileID: 1853801124043520886, guid: 8f63fa925126a5449b86c74b2ff7a316, type: 3}
      propertyPath: m_LocalEulerAnglesHint.x
      value: 0
      objectReference: {fileID: 0}
    - target: {fileID: 1853801124043520886, guid: 8f63fa925126a5449b86c74b2ff7a316, type: 3}
      propertyPath: m_LocalEulerAnglesHint.y
      value: 90
      objectReference: {fileID: 0}
    - target: {fileID: 1853801124043520886, guid: 8f63fa925126a5449b86c74b2ff7a316, type: 3}
      propertyPath: m_LocalEulerAnglesHint.z
      value: 0
      objectReference: {fileID: 0}
    - target: {fileID: 2330425910216138425, guid: 8f63fa925126a5449b86c74b2ff7a316, type: 3}
      propertyPath: m_Name
      value: GrassTuft (1)
      objectReference: {fileID: 0}
    m_RemovedComponents: []
  m_SourcePrefab: {fileID: 100100000, guid: 8f63fa925126a5449b86c74b2ff7a316, type: 3}
--- !u!1001 &1249894323
PrefabInstance:
  m_ObjectHideFlags: 0
  serializedVersion: 2
  m_Modification:
    m_TransformParent: {fileID: 0}
    m_Modifications:
    - target: {fileID: 417490020107877270, guid: 01b0ac4fdef24e94eb13f4a3c8d2be10, type: 3}
      propertyPath: m_Name
      value: Player
      objectReference: {fileID: 0}
    - target: {fileID: 417490020107877274, guid: 01b0ac4fdef24e94eb13f4a3c8d2be10, type: 3}
      propertyPath: m_RootOrder
      value: 7
      objectReference: {fileID: 0}
    - target: {fileID: 417490020107877274, guid: 01b0ac4fdef24e94eb13f4a3c8d2be10, type: 3}
      propertyPath: m_LocalPosition.x
      value: -0.66
      objectReference: {fileID: 0}
    - target: {fileID: 417490020107877274, guid: 01b0ac4fdef24e94eb13f4a3c8d2be10, type: 3}
      propertyPath: m_LocalPosition.y
      value: 1
      objectReference: {fileID: 0}
    - target: {fileID: 417490020107877274, guid: 01b0ac4fdef24e94eb13f4a3c8d2be10, type: 3}
      propertyPath: m_LocalPosition.z
      value: -6.55
      objectReference: {fileID: 0}
    - target: {fileID: 417490020107877274, guid: 01b0ac4fdef24e94eb13f4a3c8d2be10, type: 3}
      propertyPath: m_LocalRotation.w
      value: 1
      objectReference: {fileID: 0}
    - target: {fileID: 417490020107877274, guid: 01b0ac4fdef24e94eb13f4a3c8d2be10, type: 3}
      propertyPath: m_LocalRotation.x
      value: 0
      objectReference: {fileID: 0}
    - target: {fileID: 417490020107877274, guid: 01b0ac4fdef24e94eb13f4a3c8d2be10, type: 3}
      propertyPath: m_LocalRotation.y
      value: 0
      objectReference: {fileID: 0}
    - target: {fileID: 417490020107877274, guid: 01b0ac4fdef24e94eb13f4a3c8d2be10, type: 3}
      propertyPath: m_LocalRotation.z
      value: 0
      objectReference: {fileID: 0}
    - target: {fileID: 417490020107877274, guid: 01b0ac4fdef24e94eb13f4a3c8d2be10, type: 3}
      propertyPath: m_LocalEulerAnglesHint.x
      value: 0
      objectReference: {fileID: 0}
    - target: {fileID: 417490020107877274, guid: 01b0ac4fdef24e94eb13f4a3c8d2be10, type: 3}
      propertyPath: m_LocalEulerAnglesHint.y
      value: 0
      objectReference: {fileID: 0}
    - target: {fileID: 417490020107877274, guid: 01b0ac4fdef24e94eb13f4a3c8d2be10, type: 3}
      propertyPath: m_LocalEulerAnglesHint.z
      value: 0
      objectReference: {fileID: 0}
    m_RemovedComponents: []
  m_SourcePrefab: {fileID: 100100000, guid: 01b0ac4fdef24e94eb13f4a3c8d2be10, type: 3}
--- !u!1001 &1813696855
PrefabInstance:
  m_ObjectHideFlags: 0
  serializedVersion: 2
  m_Modification:
    m_TransformParent: {fileID: 0}
    m_Modifications:
    - target: {fileID: 1853801124043520886, guid: 8f63fa925126a5449b86c74b2ff7a316, type: 3}
      propertyPath: m_RootOrder
      value: 6
      objectReference: {fileID: 0}
    - target: {fileID: 1853801124043520886, guid: 8f63fa925126a5449b86c74b2ff7a316, type: 3}
      propertyPath: m_LocalPosition.x
      value: 2.49
      objectReference: {fileID: 0}
    - target: {fileID: 1853801124043520886, guid: 8f63fa925126a5449b86c74b2ff7a316, type: 3}
      propertyPath: m_LocalPosition.y
      value: 0
      objectReference: {fileID: 0}
    - target: {fileID: 1853801124043520886, guid: 8f63fa925126a5449b86c74b2ff7a316, type: 3}
      propertyPath: m_LocalPosition.z
      value: -0.51
      objectReference: {fileID: 0}
    - target: {fileID: 1853801124043520886, guid: 8f63fa925126a5449b86c74b2ff7a316, type: 3}
      propertyPath: m_LocalRotation.w
      value: -0.7071068
      objectReference: {fileID: 0}
    - target: {fileID: 1853801124043520886, guid: 8f63fa925126a5449b86c74b2ff7a316, type: 3}
      propertyPath: m_LocalRotation.x
      value: 0
      objectReference: {fileID: 0}
    - target: {fileID: 1853801124043520886, guid: 8f63fa925126a5449b86c74b2ff7a316, type: 3}
      propertyPath: m_LocalRotation.y
      value: 0.7071068
      objectReference: {fileID: 0}
    - target: {fileID: 1853801124043520886, guid: 8f63fa925126a5449b86c74b2ff7a316, type: 3}
      propertyPath: m_LocalRotation.z
      value: -0
      objectReference: {fileID: 0}
    - target: {fileID: 1853801124043520886, guid: 8f63fa925126a5449b86c74b2ff7a316, type: 3}
      propertyPath: m_LocalEulerAnglesHint.x
      value: 0
      objectReference: {fileID: 0}
    - target: {fileID: 1853801124043520886, guid: 8f63fa925126a5449b86c74b2ff7a316, type: 3}
      propertyPath: m_LocalEulerAnglesHint.y
      value: 270
      objectReference: {fileID: 0}
    - target: {fileID: 1853801124043520886, guid: 8f63fa925126a5449b86c74b2ff7a316, type: 3}
      propertyPath: m_LocalEulerAnglesHint.z
      value: 0
      objectReference: {fileID: 0}
    - target: {fileID: 2330425910216138425, guid: 8f63fa925126a5449b86c74b2ff7a316, type: 3}
      propertyPath: m_Name
      value: GrassTuft (2)
      objectReference: {fileID: 0}
    m_RemovedComponents: []
  m_SourcePrefab: {fileID: 100100000, guid: 8f63fa925126a5449b86c74b2ff7a316, type: 3}
--- !u!1001 &89609614091556066
PrefabInstance:
  m_ObjectHideFlags: 0
  serializedVersion: 2
  m_Modification:
    m_TransformParent: {fileID: 0}
    m_Modifications:
    - target: {fileID: 89609613551256740, guid: 236597eea93a65943a39ac37cd7ce628, type: 3}
      propertyPath: m_Name
      value: Logs
      objectReference: {fileID: 0}
    - target: {fileID: 89609613551256741, guid: 236597eea93a65943a39ac37cd7ce628, type: 3}
      propertyPath: m_RootOrder
      value: 3
      objectReference: {fileID: 0}
    - target: {fileID: 89609613551256741, guid: 236597eea93a65943a39ac37cd7ce628, type: 3}
      propertyPath: m_LocalPosition.x
      value: 1.64
      objectReference: {fileID: 0}
    - target: {fileID: 89609613551256741, guid: 236597eea93a65943a39ac37cd7ce628, type: 3}
      propertyPath: m_LocalPosition.y
      value: 0
      objectReference: {fileID: 0}
    - target: {fileID: 89609613551256741, guid: 236597eea93a65943a39ac37cd7ce628, type: 3}
      propertyPath: m_LocalPosition.z
      value: -0.68
      objectReference: {fileID: 0}
    - target: {fileID: 89609613551256741, guid: 236597eea93a65943a39ac37cd7ce628, type: 3}
      propertyPath: m_LocalRotation.w
      value: 1
      objectReference: {fileID: 0}
    - target: {fileID: 89609613551256741, guid: 236597eea93a65943a39ac37cd7ce628, type: 3}
      propertyPath: m_LocalRotation.x
      value: 0
      objectReference: {fileID: 0}
    - target: {fileID: 89609613551256741, guid: 236597eea93a65943a39ac37cd7ce628, type: 3}
      propertyPath: m_LocalRotation.y
      value: 0
      objectReference: {fileID: 0}
    - target: {fileID: 89609613551256741, guid: 236597eea93a65943a39ac37cd7ce628, type: 3}
      propertyPath: m_LocalRotation.z
      value: 0
      objectReference: {fileID: 0}
    - target: {fileID: 89609613551256741, guid: 236597eea93a65943a39ac37cd7ce628, type: 3}
      propertyPath: m_LocalEulerAnglesHint.x
      value: 0
      objectReference: {fileID: 0}
    - target: {fileID: 89609613551256741, guid: 236597eea93a65943a39ac37cd7ce628, type: 3}
      propertyPath: m_LocalEulerAnglesHint.y
      value: 0
      objectReference: {fileID: 0}
    - target: {fileID: 89609613551256741, guid: 236597eea93a65943a39ac37cd7ce628, type: 3}
      propertyPath: m_LocalEulerAnglesHint.z
      value: 0
      objectReference: {fileID: 0}
    m_RemovedComponents: []
  m_SourcePrefab: {fileID: 100100000, guid: 236597eea93a65943a39ac37cd7ce628, type: 3}
--- !u!1001 &995795004103594440
PrefabInstance:
  m_ObjectHideFlags: 0
  serializedVersion: 2
  m_Modification:
    m_TransformParent: {fileID: 0}
    m_Modifications:
    - target: {fileID: 995795004225677673, guid: 8c15771dc1d04ff4cb05f42131badeaa, type: 3}
      propertyPath: m_Name
      value: Campfire
      objectReference: {fileID: 0}
    - target: {fileID: 995795004225677674, guid: 8c15771dc1d04ff4cb05f42131badeaa, type: 3}
      propertyPath: m_RootOrder
      value: 4
      objectReference: {fileID: 0}
    - target: {fileID: 995795004225677674, guid: 8c15771dc1d04ff4cb05f42131badeaa, type: 3}
      propertyPath: m_LocalPosition.x
      value: -0.22
      objectReference: {fileID: 0}
    - target: {fileID: 995795004225677674, guid: 8c15771dc1d04ff4cb05f42131badeaa, type: 3}
      propertyPath: m_LocalPosition.y
      value: 0
      objectReference: {fileID: 0}
    - target: {fileID: 995795004225677674, guid: 8c15771dc1d04ff4cb05f42131badeaa, type: 3}
      propertyPath: m_LocalPosition.z
      value: -1.67
      objectReference: {fileID: 0}
    - target: {fileID: 995795004225677674, guid: 8c15771dc1d04ff4cb05f42131badeaa, type: 3}
      propertyPath: m_LocalRotation.w
      value: 1
      objectReference: {fileID: 0}
    - target: {fileID: 995795004225677674, guid: 8c15771dc1d04ff4cb05f42131badeaa, type: 3}
      propertyPath: m_LocalRotation.x
      value: 0
      objectReference: {fileID: 0}
    - target: {fileID: 995795004225677674, guid: 8c15771dc1d04ff4cb05f42131badeaa, type: 3}
      propertyPath: m_LocalRotation.y
      value: 0
      objectReference: {fileID: 0}
    - target: {fileID: 995795004225677674, guid: 8c15771dc1d04ff4cb05f42131badeaa, type: 3}
      propertyPath: m_LocalRotation.z
      value: 0
      objectReference: {fileID: 0}
    - target: {fileID: 995795004225677674, guid: 8c15771dc1d04ff4cb05f42131badeaa, type: 3}
      propertyPath: m_LocalEulerAnglesHint.x
      value: 0
      objectReference: {fileID: 0}
    - target: {fileID: 995795004225677674, guid: 8c15771dc1d04ff4cb05f42131badeaa, type: 3}
      propertyPath: m_LocalEulerAnglesHint.y
      value: 0
      objectReference: {fileID: 0}
    - target: {fileID: 995795004225677674, guid: 8c15771dc1d04ff4cb05f42131badeaa, type: 3}
      propertyPath: m_LocalEulerAnglesHint.z
      value: 0
      objectReference: {fileID: 0}
    m_RemovedComponents: []
  m_SourcePrefab: {fileID: 100100000, guid: 8c15771dc1d04ff4cb05f42131badeaa, type: 3}
--- !u!1001 &2034275927541759084
PrefabInstance:
  m_ObjectHideFlags: 0
  serializedVersion: 2
  m_Modification:
    m_TransformParent: {fileID: 0}
    m_Modifications:
    - target: {fileID: 2543533486686207700, guid: 107ef2f5731cf22498e1e9046e771964, type: 3}
      propertyPath: m_Name
      value: Campfire_lit
      objectReference: {fileID: 0}
    - target: {fileID: 2543533486686207703, guid: 107ef2f5731cf22498e1e9046e771964, type: 3}
      propertyPath: m_RootOrder
      value: 9
      objectReference: {fileID: 0}
    - target: {fileID: 2543533486686207703, guid: 107ef2f5731cf22498e1e9046e771964, type: 3}
      propertyPath: m_LocalPosition.x
      value: -5.72
      objectReference: {fileID: 0}
    - target: {fileID: 2543533486686207703, guid: 107ef2f5731cf22498e1e9046e771964, type: 3}
      propertyPath: m_LocalPosition.y
      value: 0
      objectReference: {fileID: 0}
    - target: {fileID: 2543533486686207703, guid: 107ef2f5731cf22498e1e9046e771964, type: 3}
      propertyPath: m_LocalPosition.z
      value: -7.15
      objectReference: {fileID: 0}
    - target: {fileID: 2543533486686207703, guid: 107ef2f5731cf22498e1e9046e771964, type: 3}
      propertyPath: m_LocalRotation.w
      value: 1
      objectReference: {fileID: 0}
    - target: {fileID: 2543533486686207703, guid: 107ef2f5731cf22498e1e9046e771964, type: 3}
      propertyPath: m_LocalRotation.x
      value: 0
      objectReference: {fileID: 0}
    - target: {fileID: 2543533486686207703, guid: 107ef2f5731cf22498e1e9046e771964, type: 3}
      propertyPath: m_LocalRotation.y
      value: 0
      objectReference: {fileID: 0}
    - target: {fileID: 2543533486686207703, guid: 107ef2f5731cf22498e1e9046e771964, type: 3}
      propertyPath: m_LocalRotation.z
      value: 0
      objectReference: {fileID: 0}
    - target: {fileID: 2543533486686207703, guid: 107ef2f5731cf22498e1e9046e771964, type: 3}
      propertyPath: m_LocalEulerAnglesHint.x
      value: 0
      objectReference: {fileID: 0}
    - target: {fileID: 2543533486686207703, guid: 107ef2f5731cf22498e1e9046e771964, type: 3}
      propertyPath: m_LocalEulerAnglesHint.y
      value: 0
      objectReference: {fileID: 0}
    - target: {fileID: 2543533486686207703, guid: 107ef2f5731cf22498e1e9046e771964, type: 3}
      propertyPath: m_LocalEulerAnglesHint.z
      value: 0
      objectReference: {fileID: 0}
    m_RemovedComponents: []
  m_SourcePrefab: {fileID: 100100000, guid: 107ef2f5731cf22498e1e9046e771964, type: 3}
--- !u!1001 &8335367423939890722
PrefabInstance:
  m_ObjectHideFlags: 0
  serializedVersion: 2
  m_Modification:
    m_TransformParent: {fileID: 0}
    m_Modifications:
    - target: {fileID: 687932143507029558, guid: d3cc35faba5fa7c4788a90282dd7ad5b, type: 3}
      propertyPath: m_RootOrder
      value: 1
      objectReference: {fileID: 0}
    - target: {fileID: 687932143507029558, guid: d3cc35faba5fa7c4788a90282dd7ad5b, type: 3}
      propertyPath: m_LocalPosition.x
      value: 0
      objectReference: {fileID: 0}
    - target: {fileID: 687932143507029558, guid: d3cc35faba5fa7c4788a90282dd7ad5b, type: 3}
      propertyPath: m_LocalPosition.y
      value: 0
      objectReference: {fileID: 0}
    - target: {fileID: 687932143507029558, guid: d3cc35faba5fa7c4788a90282dd7ad5b, type: 3}
      propertyPath: m_LocalPosition.z
      value: 0
      objectReference: {fileID: 0}
    - target: {fileID: 687932143507029558, guid: d3cc35faba5fa7c4788a90282dd7ad5b, type: 3}
      propertyPath: m_LocalRotation.w
      value: 1
      objectReference: {fileID: 0}
    - target: {fileID: 687932143507029558, guid: d3cc35faba5fa7c4788a90282dd7ad5b, type: 3}
      propertyPath: m_LocalRotation.x
      value: 0
      objectReference: {fileID: 0}
    - target: {fileID: 687932143507029558, guid: d3cc35faba5fa7c4788a90282dd7ad5b, type: 3}
      propertyPath: m_LocalRotation.y
      value: 0
      objectReference: {fileID: 0}
    - target: {fileID: 687932143507029558, guid: d3cc35faba5fa7c4788a90282dd7ad5b, type: 3}
      propertyPath: m_LocalRotation.z
      value: 0
      objectReference: {fileID: 0}
    - target: {fileID: 687932143507029558, guid: d3cc35faba5fa7c4788a90282dd7ad5b, type: 3}
      propertyPath: m_LocalEulerAnglesHint.x
      value: 0
      objectReference: {fileID: 0}
    - target: {fileID: 687932143507029558, guid: d3cc35faba5fa7c4788a90282dd7ad5b, type: 3}
      propertyPath: m_LocalEulerAnglesHint.y
      value: 0
      objectReference: {fileID: 0}
    - target: {fileID: 687932143507029558, guid: d3cc35faba5fa7c4788a90282dd7ad5b, type: 3}
      propertyPath: m_LocalEulerAnglesHint.z
      value: 0
      objectReference: {fileID: 0}
    - target: {fileID: 2267340643528347031, guid: d3cc35faba5fa7c4788a90282dd7ad5b, type: 3}
      propertyPath: m_Name
      value: GroundTile
      objectReference: {fileID: 0}
    - target: {fileID: 7361853261498721012, guid: d3cc35faba5fa7c4788a90282dd7ad5b, type: 3}
      propertyPath: m_LocalPosition.x
      value: -0.03
      objectReference: {fileID: 0}
    - target: {fileID: 7361853261498721012, guid: d3cc35faba5fa7c4788a90282dd7ad5b, type: 3}
      propertyPath: m_LocalPosition.z
      value: -0
      objectReference: {fileID: 0}
    - target: {fileID: 7361853261498721012, guid: d3cc35faba5fa7c4788a90282dd7ad5b, type: 3}
      propertyPath: m_LocalRotation.x
      value: -0
      objectReference: {fileID: 0}
    - target: {fileID: 7361853261498721012, guid: d3cc35faba5fa7c4788a90282dd7ad5b, type: 3}
      propertyPath: m_LocalRotation.y
      value: -0
      objectReference: {fileID: 0}
    - target: {fileID: 7361853261498721012, guid: d3cc35faba5fa7c4788a90282dd7ad5b, type: 3}
      propertyPath: m_LocalRotation.z
      value: -0
      objectReference: {fileID: 0}
    m_RemovedComponents: []
  m_SourcePrefab: {fileID: 100100000, guid: d3cc35faba5fa7c4788a90282dd7ad5b, type: 3}
--- !u!1001 &9188211727195724547
PrefabInstance:
  m_ObjectHideFlags: 0
  serializedVersion: 2
  m_Modification:
    m_TransformParent: {fileID: 0}
    m_Modifications:
    - target: {fileID: 1853801124043520886, guid: 8f63fa925126a5449b86c74b2ff7a316, type: 3}
      propertyPath: m_RootOrder
      value: 2
      objectReference: {fileID: 0}
    - target: {fileID: 1853801124043520886, guid: 8f63fa925126a5449b86c74b2ff7a316, type: 3}
      propertyPath: m_LocalPosition.x
      value: 0.69
      objectReference: {fileID: 0}
    - target: {fileID: 1853801124043520886, guid: 8f63fa925126a5449b86c74b2ff7a316, type: 3}
      propertyPath: m_LocalPosition.y
      value: 0
      objectReference: {fileID: 0}
    - target: {fileID: 1853801124043520886, guid: 8f63fa925126a5449b86c74b2ff7a316, type: 3}
      propertyPath: m_LocalPosition.z
      value: 0.93
      objectReference: {fileID: 0}
    - target: {fileID: 1853801124043520886, guid: 8f63fa925126a5449b86c74b2ff7a316, type: 3}
      propertyPath: m_LocalRotation.w
      value: 1
      objectReference: {fileID: 0}
    - target: {fileID: 1853801124043520886, guid: 8f63fa925126a5449b86c74b2ff7a316, type: 3}
      propertyPath: m_LocalRotation.x
      value: 0
      objectReference: {fileID: 0}
    - target: {fileID: 1853801124043520886, guid: 8f63fa925126a5449b86c74b2ff7a316, type: 3}
      propertyPath: m_LocalRotation.y
      value: 0
      objectReference: {fileID: 0}
    - target: {fileID: 1853801124043520886, guid: 8f63fa925126a5449b86c74b2ff7a316, type: 3}
      propertyPath: m_LocalRotation.z
      value: 0
      objectReference: {fileID: 0}
    - target: {fileID: 1853801124043520886, guid: 8f63fa925126a5449b86c74b2ff7a316, type: 3}
      propertyPath: m_LocalEulerAnglesHint.x
      value: 0
      objectReference: {fileID: 0}
    - target: {fileID: 1853801124043520886, guid: 8f63fa925126a5449b86c74b2ff7a316, type: 3}
      propertyPath: m_LocalEulerAnglesHint.y
      value: 0
      objectReference: {fileID: 0}
    - target: {fileID: 1853801124043520886, guid: 8f63fa925126a5449b86c74b2ff7a316, type: 3}
      propertyPath: m_LocalEulerAnglesHint.z
      value: 0
      objectReference: {fileID: 0}
    - target: {fileID: 2330425910216138425, guid: 8f63fa925126a5449b86c74b2ff7a316, type: 3}
      propertyPath: m_Name
      value: GrassTuft
      objectReference: {fileID: 0}
    m_RemovedComponents: []
  m_SourcePrefab: {fileID: 100100000, guid: 8f63fa925126a5449b86c74b2ff7a316, type: 3}
