%YAML 1.1
%TAG !u! tag:unity3d.com,2011:
--- !u!1 &2330425910216138425
GameObject:
  m_ObjectHideFlags: 0
  m_CorrespondingSourceObject: {fileID: 0}
  m_PrefabInstance: {fileID: 0}
  m_PrefabAsset: {fileID: 0}
  serializedVersion: 6
  m_Component:
  - component: {fileID: 1853801124043520886}
  m_Layer: 0
  m_Name: GrassTuft
  m_TagString: Untagged
  m_Icon: {fileID: 0}
  m_NavMeshLayer: 0
  m_StaticEditorFlags: 4294967295
  m_IsActive: 1
--- !u!4 &1853801124043520886
Transform:
  m_ObjectHideFlags: 0
  m_CorrespondingSourceObject: {fileID: 0}
  m_PrefabInstance: {fileID: 0}
  m_PrefabAsset: {fileID: 0}
  m_GameObject: {fileID: 2330425910216138425}
  m_LocalRotation: {x: 0, y: 0, z: 0, w: 1}
  m_LocalPosition: {x: 0, y: 0, z: 0}
  m_LocalScale: {x: 1, y: 1, z: 1}
  m_Children:
  - {fileID: 7264529377561869572}
  m_Father: {fileID: 0}
  m_RootOrder: 0
  m_LocalEulerAnglesHint: {x: 0, y: 0, z: 0}
--- !u!1001 &7159161584257571567
PrefabInstance:
  m_ObjectHideFlags: 0
  serializedVersion: 2
  m_Modification:
    m_TransformParent: {fileID: 1853801124043520886}
    m_Modifications:
    - target: {fileID: -8679921383154817045, guid: f73a00245141e5b41b9018a645e807cd, type: 3}
      propertyPath: m_RootOrder
      value: 0
      objectReference: {fileID: 0}
    - target: {fileID: -8679921383154817045, guid: f73a00245141e5b41b9018a645e807cd, type: 3}
      propertyPath: m_LocalScale.x
      value: 1
      objectReference: {fileID: 0}
    - target: {fileID: -8679921383154817045, guid: f73a00245141e5b41b9018a645e807cd, type: 3}
      propertyPath: m_LocalScale.z
      value: 1
      objectReference: {fileID: 0}
    - target: {fileID: -8679921383154817045, guid: f73a00245141e5b41b9018a645e807cd, type: 3}
      propertyPath: m_LocalPosition.x
      value: 0
      objectReference: {fileID: 0}
    - target: {fileID: -8679921383154817045, guid: f73a00245141e5b41b9018a645e807cd, type: 3}
      propertyPath: m_LocalPosition.y
      value: 0.18
      objectReference: {fileID: 0}
    - target: {fileID: -8679921383154817045, guid: f73a00245141e5b41b9018a645e807cd, type: 3}
      propertyPath: m_LocalPosition.z
      value: 0
      objectReference: {fileID: 0}
    - target: {fileID: -8679921383154817045, guid: f73a00245141e5b41b9018a645e807cd, type: 3}
      propertyPath: m_LocalRotation.w
      value: 1
      objectReference: {fileID: 0}
    - target: {fileID: -8679921383154817045, guid: f73a00245141e5b41b9018a645e807cd, type: 3}
      propertyPath: m_LocalRotation.x
      value: 0
      objectReference: {fileID: 0}
    - target: {fileID: -8679921383154817045, guid: f73a00245141e5b41b9018a645e807cd, type: 3}
      propertyPath: m_LocalRotation.y
      value: 0
      objectReference: {fileID: 0}
    - target: {fileID: -8679921383154817045, guid: f73a00245141e5b41b9018a645e807cd, type: 3}
      propertyPath: m_LocalRotation.z
      value: 0
      objectReference: {fileID: 0}
    - target: {fileID: -8679921383154817045, guid: f73a00245141e5b41b9018a645e807cd, type: 3}
      propertyPath: m_LocalEulerAnglesHint.x
      value: 0
      objectReference: {fileID: 0}
    - target: {fileID: -8679921383154817045, guid: f73a00245141e5b41b9018a645e807cd, type: 3}
      propertyPath: m_LocalEulerAnglesHint.y
      value: 0
      objectReference: {fileID: 0}
    - target: {fileID: -8679921383154817045, guid: f73a00245141e5b41b9018a645e807cd, type: 3}
      propertyPath: m_LocalEulerAnglesHint.z
      value: 0
      objectReference: {fileID: 0}
    - target: {fileID: -7511558181221131132, guid: f73a00245141e5b41b9018a645e807cd, type: 3}
      propertyPath: m_Materials.Array.data[0]
      value: 
      objectReference: {fileID: 2100000, guid: 22af2a6cd66d6b947a3b6abe477b28e3, type: 2}
    - target: {fileID: -7511558181221131132, guid: f73a00245141e5b41b9018a645e807cd, type: 3}
      propertyPath: m_Materials.Array.data[1]
      value: 
      objectReference: {fileID: 2100000, guid: 22af2a6cd66d6b947a3b6abe477b28e3, type: 2}
    - target: {fileID: -7511558181221131132, guid: f73a00245141e5b41b9018a645e807cd, type: 3}
      propertyPath: m_Materials.Array.data[2]
      value: 
      objectReference: {fileID: 2100000, guid: 22af2a6cd66d6b947a3b6abe477b28e3, type: 2}
    - target: {fileID: 919132149155446097, guid: f73a00245141e5b41b9018a645e807cd, type: 3}
      propertyPath: m_Name
      value: GrassTuft
      objectReference: {fileID: 0}
    - target: {fileID: 919132149155446097, guid: f73a00245141e5b41b9018a645e807cd, type: 3}
      propertyPath: m_StaticEditorFlags
      value: 4294967295
      objectReference: {fileID: 0}
    m_RemovedComponents: []
  m_SourcePrefab: {fileID: 100100000, guid: f73a00245141e5b41b9018a645e807cd, type: 3}
--- !u!4 &7264529377561869572 stripped
Transform:
  m_CorrespondingSourceObject: {fileID: -8679921383154817045, guid: f73a00245141e5b41b9018a645e807cd, type: 3}
  m_PrefabInstance: {fileID: 7159161584257571567}
  m_PrefabAsset: {fileID: 0}
